^C:\USERS\DOGMA\DOCUMENTS\VISUAL STUDIO 2015\PROJECTS\STIVISTUTORIALENHANCEDEDITIONBITBUCKET\STIVISTUTORIALENHANCEDEDITION\STDAFX.CPP
C:\USERS\DOGMA\DOCUMENTS\VISUAL STUDIO 2015\PROJECTS\STIVISTUTORIALENHANCEDEDITIONBITBUCKET\STIVISTUTORIALENHANCEDEDITION\X64\DEBUG\STIVISTUTORIALENHANCEDEDITION.PCH
C:\USERS\DOGMA\DOCUMENTS\VISUAL STUDIO 2015\PROJECTS\STIVISTUTORIALENHANCEDEDITIONBITBUCKET\STIVISTUTORIALENHANCEDEDITION\X64\DEBUG\VC140.PDB
C:\USERS\DOGMA\DOCUMENTS\VISUAL STUDIO 2015\PROJECTS\STIVISTUTORIALENHANCEDEDITIONBITBUCKET\STIVISTUTORIALENHANCEDEDITION\X64\DEBUG\VC140.IDB
C:\USERS\DOGMA\DOCUMENTS\VISUAL STUDIO 2015\PROJECTS\STIVISTUTORIALENHANCEDEDITIONBITBUCKET\STIVISTUTORIALENHANCEDEDITION\X64\DEBUG\STDAFX.OBJ
^C:\USERS\DOGMA\DOCUMENTS\VISUAL STUDIO 2015\PROJECTS\STIVISTUTORIALENHANCEDEDITIONBITBUCKET\STIVISTUTORIALENHANCEDEDITION\STIVISTUTORIALENHANCEDEDITION.CPP
C:\USERS\DOGMA\DOCUMENTS\VISUAL STUDIO 2015\PROJECTS\STIVISTUTORIALENHANCEDEDITIONBITBUCKET\STIVISTUTORIALENHANCEDEDITION\X64\DEBUG\VC140.PDB
C:\USERS\DOGMA\DOCUMENTS\VISUAL STUDIO 2015\PROJECTS\STIVISTUTORIALENHANCEDEDITIONBITBUCKET\STIVISTUTORIALENHANCEDEDITION\X64\DEBUG\VC140.IDB
C:\USERS\DOGMA\DOCUMENTS\VISUAL STUDIO 2015\PROJECTS\STIVISTUTORIALENHANCEDEDITIONBITBUCKET\STIVISTUTORIALENHANCEDEDITION\X64\DEBUG\STIVISTUTORIALENHANCEDEDITION.OBJ
^C:\USERS\DOGMA\DOCUMENTS\VISUAL STUDIO 2015\PROJECTS\STIVISTUTORIALENHANCEDEDITIONBITBUCKET\STIVISTUTORIALENHANCEDEDITION\FAHRZEUG.CPP|C:\USERS\DOGMA\DOCUMENTS\VISUAL STUDIO 2015\PROJECTS\STIVISTUTORIALENHANCEDEDITIONBITBUCKET\STIVISTUTORIALENHANCEDEDITION\GRUNDLAGEN.CPP|C:\USERS\DOGMA\DOCUMENTS\VISUAL STUDIO 2015\PROJECTS\STIVISTUTORIALENHANCEDEDITIONBITBUCKET\STIVISTUTORIALENHANCEDEDITION\STIVISTUTORIALENHANCEDEDITION.CPP
C:\USERS\DOGMA\DOCUMENTS\VISUAL STUDIO 2015\PROJECTS\STIVISTUTORIALENHANCEDEDITIONBITBUCKET\STIVISTUTORIALENHANCEDEDITION\X64\DEBUG\VC140.PDB
C:\USERS\DOGMA\DOCUMENTS\VISUAL STUDIO 2015\PROJECTS\STIVISTUTORIALENHANCEDEDITIONBITBUCKET\STIVISTUTORIALENHANCEDEDITION\X64\DEBUG\VC140.IDB
C:\USERS\DOGMA\DOCUMENTS\VISUAL STUDIO 2015\PROJECTS\STIVISTUTORIALENHANCEDEDITIONBITBUCKET\STIVISTUTORIALENHANCEDEDITION\X64\DEBUG\STIVISTUTORIALENHANCEDEDITION.OBJ
C:\USERS\DOGMA\DOCUMENTS\VISUAL STUDIO 2015\PROJECTS\STIVISTUTORIALENHANCEDEDITIONBITBUCKET\STIVISTUTORIALENHANCEDEDITION\X64\DEBUG\GRUNDLAGEN.OBJ
^C:\USERS\DOGMA\DOCUMENTS\VISUAL STUDIO 2015\PROJECTS\STIVISTUTORIALENHANCEDEDITIONBITBUCKET\STIVISTUTORIALENHANCEDEDITION\FAHRZEUG.CPP
C:\USERS\DOGMA\DOCUMENTS\VISUAL STUDIO 2015\PROJECTS\STIVISTUTORIALENHANCEDEDITIONBITBUCKET\STIVISTUTORIALENHANCEDEDITION\X64\DEBUG\VC140.PDB
C:\USERS\DOGMA\DOCUMENTS\VISUAL STUDIO 2015\PROJECTS\STIVISTUTORIALENHANCEDEDITIONBITBUCKET\STIVISTUTORIALENHANCEDEDITION\X64\DEBUG\VC140.IDB
C:\USERS\DOGMA\DOCUMENTS\VISUAL STUDIO 2015\PROJECTS\STIVISTUTORIALENHANCEDEDITIONBITBUCKET\STIVISTUTORIALENHANCEDEDITION\X64\DEBUG\FAHRZEUG.OBJ
^C:\USERS\DOGMA\DOCUMENTS\VISUAL STUDIO 2015\PROJECTS\STIVISTUTORIALENHANCEDEDITIONBITBUCKET\STIVISTUTORIALENHANCEDEDITION\GRUNDLAGEN.CPP
C:\USERS\DOGMA\DOCUMENTS\VISUAL STUDIO 2015\PROJECTS\STIVISTUTORIALENHANCEDEDITIONBITBUCKET\STIVISTUTORIALENHANCEDEDITION\X64\DEBUG\VC140.PDB
^C:\USERS\DOGMA\DOCUMENTS\VISUAL STUDIO 2015\PROJECTS\STIVISTUTORIALENHANCEDEDITIONBITBUCKET\STIVISTUTORIALENHANCEDEDITION\FAHRZEUG.CPP|C:\USERS\DOGMA\DOCUMENTS\VISUAL STUDIO 2015\PROJECTS\STIVISTUTORIALENHANCEDEDITIONBITBUCKET\STIVISTUTORIALENHANCEDEDITION\GRUNDLAGEN.CPP
^C:\USERS\DOGMA\DOCUMENTS\VISUAL STUDIO 2015\PROJECTS\STIVISTUTORIALENHANCEDEDITIONBITBUCKET\STIVISTUTORIALENHANCEDEDITION\FAHRZEUG.CPP|C:\USERS\DOGMA\DOCUMENTS\VISUAL STUDIO 2015\PROJECTS\STIVISTUTORIALENHANCEDEDITIONBITBUCKET\STIVISTUTORIALENHANCEDEDITION\STIVISTUTORIALENHANCEDEDITION.CPP
C:\USERS\DOGMA\DOCUMENTS\VISUAL STUDIO 2015\PROJECTS\STIVISTUTORIALENHANCEDEDITIONBITBUCKET\STIVISTUTORIALENHANCEDEDITION\X64\DEBUG\VC140.PDB
C:\USERS\DOGMA\DOCUMENTS\VISUAL STUDIO 2015\PROJECTS\STIVISTUTORIALENHANCEDEDITIONBITBUCKET\STIVISTUTORIALENHANCEDEDITION\X64\DEBUG\VC140.IDB
C:\USERS\DOGMA\DOCUMENTS\VISUAL STUDIO 2015\PROJECTS\STIVISTUTORIALENHANCEDEDITIONBITBUCKET\STIVISTUTORIALENHANCEDEDITION\X64\DEBUG\FAHRZEUG.OBJ
^C:\USERS\DOGMA\DOCUMENTS\VISUAL STUDIO 2015\PROJECTS\STIVISTUTORIALENHANCEDEDITIONBITBUCKET\STIVISTUTORIALENHANCEDEDITION\FAHRZEUG.CPP|C:\USERS\DOGMA\DOCUMENTS\VISUAL STUDIO 2015\PROJECTS\STIVISTUTORIALENHANCEDEDITIONBITBUCKET\STIVISTUTORIALENHANCEDEDITION\RAUMFAHRZEUG.CPP|C:\USERS\DOGMA\DOCUMENTS\VISUAL STUDIO 2015\PROJECTS\STIVISTUTORIALENHANCEDEDITIONBITBUCKET\STIVISTUTORIALENHANCEDEDITION\STIVISTUTORIALENHANCEDEDITION.CPP
C:\USERS\DOGMA\DOCUMENTS\VISUAL STUDIO 2015\PROJECTS\STIVISTUTORIALENHANCEDEDITIONBITBUCKET\STIVISTUTORIALENHANCEDEDITION\X64\DEBUG\VC140.PDB
C:\USERS\DOGMA\DOCUMENTS\VISUAL STUDIO 2015\PROJECTS\STIVISTUTORIALENHANCEDEDITIONBITBUCKET\STIVISTUTORIALENHANCEDEDITION\X64\DEBUG\VC140.IDB
C:\USERS\DOGMA\DOCUMENTS\VISUAL STUDIO 2015\PROJECTS\STIVISTUTORIALENHANCEDEDITIONBITBUCKET\STIVISTUTORIALENHANCEDEDITION\X64\DEBUG\RAUMFAHRZEUG.OBJ
C:\USERS\DOGMA\DOCUMENTS\VISUAL STUDIO 2015\PROJECTS\STIVISTUTORIALENHANCEDEDITIONBITBUCKET\STIVISTUTORIALENHANCEDEDITION\X64\DEBUG\STIVISTUTORIALENHANCEDEDITION.OBJ
C:\USERS\DOGMA\DOCUMENTS\VISUAL STUDIO 2015\PROJECTS\STIVISTUTORIALENHANCEDEDITIONBITBUCKET\STIVISTUTORIALENHANCEDEDITION\X64\DEBUG\FAHRZEUG.OBJ
^C:\USERS\DOGMA\DOCUMENTS\VISUAL STUDIO 2015\PROJECTS\STIVISTUTORIALENHANCEDEDITIONBITBUCKET\STIVISTUTORIALENHANCEDEDITION\RAUMFAHRZEUG.CPP
C:\USERS\DOGMA\DOCUMENTS\VISUAL STUDIO 2015\PROJECTS\STIVISTUTORIALENHANCEDEDITIONBITBUCKET\STIVISTUTORIALENHANCEDEDITION\X64\DEBUG\VC140.PDB
^C:\USERS\DOGMA\DOCUMENTS\VISUAL STUDIO 2015\PROJECTS\STIVISTUTORIALENHANCEDEDITIONBITBUCKET\STIVISTUTORIALENHANCEDEDITION\FAHRZEUG.CPP|C:\USERS\DOGMA\DOCUMENTS\VISUAL STUDIO 2015\PROJECTS\STIVISTUTORIALENHANCEDEDITIONBITBUCKET\STIVISTUTORIALENHANCEDEDITION\GRUNDLAGEN.CPP|C:\USERS\DOGMA\DOCUMENTS\VISUAL STUDIO 2015\PROJECTS\STIVISTUTORIALENHANCEDEDITIONBITBUCKET\STIVISTUTORIALENHANCEDEDITION\RAUMFAHRZEUG.CPP|C:\USERS\DOGMA\DOCUMENTS\VISUAL STUDIO 2015\PROJECTS\STIVISTUTORIALENHANCEDEDITIONBITBUCKET\STIVISTUTORIALENHANCEDEDITION\STIVISTUTORIALENHANCEDEDITION.CPP
C:\USERS\DOGMA\DOCUMENTS\VISUAL STUDIO 2015\PROJECTS\STIVISTUTORIALENHANCEDEDITIONBITBUCKET\STIVISTUTORIALENHANCEDEDITION\X64\DEBUG\VC140.PDB
C:\USERS\DOGMA\DOCUMENTS\VISUAL STUDIO 2015\PROJECTS\STIVISTUTORIALENHANCEDEDITIONBITBUCKET\STIVISTUTORIALENHANCEDEDITION\X64\DEBUG\VC140.IDB
C:\USERS\DOGMA\DOCUMENTS\VISUAL STUDIO 2015\PROJECTS\STIVISTUTORIALENHANCEDEDITIONBITBUCKET\STIVISTUTORIALENHANCEDEDITION\X64\DEBUG\FAHRZEUG.OBJ
C:\USERS\DOGMA\DOCUMENTS\VISUAL STUDIO 2015\PROJECTS\STIVISTUTORIALENHANCEDEDITIONBITBUCKET\STIVISTUTORIALENHANCEDEDITION\X64\DEBUG\GRUNDLAGEN.OBJ
C:\USERS\DOGMA\DOCUMENTS\VISUAL STUDIO 2015\PROJECTS\STIVISTUTORIALENHANCEDEDITIONBITBUCKET\STIVISTUTORIALENHANCEDEDITION\X64\DEBUG\RAUMFAHRZEUG.OBJ
C:\USERS\DOGMA\DOCUMENTS\VISUAL STUDIO 2015\PROJECTS\STIVISTUTORIALENHANCEDEDITIONBITBUCKET\STIVISTUTORIALENHANCEDEDITION\X64\DEBUG\STIVISTUTORIALENHANCEDEDITION.OBJ
