^C:\USERS\DOGMA\DOCUMENTS\VISUAL STUDIO 2015\PROJECTS\STIVISTUTORIALENHANCEDEDITIONBITBUCKET\STIVISTUTORIALENHANCEDEDITION\X64\DEBUG\FAHRZEUG.OBJ|C:\USERS\DOGMA\DOCUMENTS\VISUAL STUDIO 2015\PROJECTS\STIVISTUTORIALENHANCEDEDITIONBITBUCKET\STIVISTUTORIALENHANCEDEDITION\X64\DEBUG\GRUNDLAGEN.OBJ|C:\USERS\DOGMA\DOCUMENTS\VISUAL STUDIO 2015\PROJECTS\STIVISTUTORIALENHANCEDEDITIONBITBUCKET\STIVISTUTORIALENHANCEDEDITION\X64\DEBUG\RAUMFAHRZEUG.OBJ|C:\USERS\DOGMA\DOCUMENTS\VISUAL STUDIO 2015\PROJECTS\STIVISTUTORIALENHANCEDEDITIONBITBUCKET\STIVISTUTORIALENHANCEDEDITION\X64\DEBUG\STDAFX.OBJ|C:\USERS\DOGMA\DOCUMENTS\VISUAL STUDIO 2015\PROJECTS\STIVISTUTORIALENHANCEDEDITIONBITBUCKET\STIVISTUTORIALENHANCEDEDITION\X64\DEBUG\STIVISTUTORIALENHANCEDEDITION.OBJ
C:\USERS\DOGMA\DOCUMENTS\VISUAL STUDIO 2015\PROJECTS\STIVISTUTORIALENHANCEDEDITIONBITBUCKET\X64\DEBUG\STIVISTUTORIALENHANCEDEDITION.ILK
C:\USERS\DOGMA\DOCUMENTS\VISUAL STUDIO 2015\PROJECTS\STIVISTUTORIALENHANCEDEDITIONBITBUCKET\X64\DEBUG\STIVISTUTORIALENHANCEDEDITION.EXE
C:\USERS\DOGMA\DOCUMENTS\VISUAL STUDIO 2015\PROJECTS\STIVISTUTORIALENHANCEDEDITIONBITBUCKET\X64\DEBUG\STIVISTUTORIALENHANCEDEDITION.PDB
